%YAML 1.1
%TAG !u! tag:unity3d.com,2011:
--- !u!114 &11400000
MonoBehaviour:
  m_ObjectHideFlags: 0
  m_CorrespondingSourceObject: {fileID: 0}
  m_PrefabInstance: {fileID: 0}
  m_PrefabAsset: {fileID: 0}
  m_GameObject: {fileID: 0}
  m_Enabled: 1
  m_EditorHideFlags: 0
  m_Script: {fileID: 11500000, guid: f95812e57c37fa943a13ff5771d3b017, type: 3}
  m_Name: Da_Ra
  m_EditorClassIdentifier: 
  baseImage:
  - {fileID: 21300000, guid: a3b31394495bf13418afe4a54094c60a, type: 3}
  - {fileID: 21300000, guid: 834098895af53b14d9fbed79e81e7e06, type: 3}
  baseName: Da/Ra
  baseDescription: 
  baseAudio: {fileID: 0}
