%YAML 1.1
%TAG !u! tag:unity3d.com,2011:
--- !u!114 &11400000
MonoBehaviour:
  m_ObjectHideFlags: 0
  m_CorrespondingSourceObject: {fileID: 0}
  m_PrefabInstance: {fileID: 0}
  m_PrefabAsset: {fileID: 0}
  m_GameObject: {fileID: 0}
  m_Enabled: 1
  m_EditorHideFlags: 0
  m_Script: {fileID: 11500000, guid: f95812e57c37fa943a13ff5771d3b017, type: 3}
  m_Name: Mo_Mu
  m_EditorClassIdentifier: 
  baseImage:
  - {fileID: 21300000, guid: 11fc0d2991b01e744bea3114b5538753, type: 3}
  - {fileID: 21300000, guid: 3477e2e05289e2d488e5563fa2c3ec75, type: 3}
  baseName: Mo/Mu
  baseDescription: 
  baseAudio: {fileID: 0}
