%YAML 1.1
%TAG !u! tag:unity3d.com,2011:
--- !u!114 &11400000
MonoBehaviour:
  m_ObjectHideFlags: 0
  m_CorrespondingSourceObject: {fileID: 0}
  m_PrefabInstance: {fileID: 0}
  m_PrefabAsset: {fileID: 0}
  m_GameObject: {fileID: 0}
  m_Enabled: 1
  m_EditorHideFlags: 0
  m_Script: {fileID: 11500000, guid: f95812e57c37fa943a13ff5771d3b017, type: 3}
  m_Name: Y
  m_EditorClassIdentifier: 
  baseImage:
  - {fileID: 21300000, guid: f805f1755eb06f54591f0484b9b16259, type: 3}
  - {fileID: 21300000, guid: 41e42195efc655545bfba8e65579ed5c, type: 3}
  baseName: Y
  baseDescription: 
  baseAudio: {fileID: 0}
